What Defines a Kevin Willard Team? - A Hugo website
…
#Seton Hall stats

#Filtering for Seton Hall and creating win/loss columns
seton_hall <- logs %>%
  filter(TeamFull == 'Seton Hall Pirates') %>%
  mutate(outcome = case_when(
  grepl("W", W_L) ~ 1, 
  grepl("L", W_L) ~ 0))

#Dataframe for SH wins and losses
seton_hall %>%
  group_by(Season, outcome) %>%
  summarise(count = n())

## # A tibble: 22 × 3
## # Groups:   Season [11]
##    Season    outcome count
##    <chr>       <dbl> <int>
##  1 2011-2012       0    13
##  2 2011-2012       1    21
##  3 2012-2013       0    18
##  4 2012-2013       1    15
##  5 2013-2014       0    17
##  6 2013-2014       1    17
##  7 2014-2015       0    15
##  8 2014-2015       1    16
##  9 2015-2016       0     9
## 10 2015-2016       1    25
## # … with 12 more rows
…
