First Pass Interceptions - A Hugo website
…
pbp %>% distinct(play_type)

## ────────────────────────────────────────────────────────────── cfbfastR 1.9.0 ──

## # A tibble: 52 × 1
##    play_type                 
##    <chr>                     
##  1 Kickoff Return (Offense)  
##  2 Penalty                   
##  3 Pass Reception            
##  4 Rush                      
##  5 Pass Incompletion         
##  6 Punt                      
##  7 Sack                      
##  8 Timeout                   
##  9 Fumble Recovery (Opponent)
## 10 Fumble Recovery (Own)     
## # … with 42 more rows
…
percentage_int_plays <- int_play_by_year %>%
  left_join(pass_play, by = "year") %>%
  rename(int = count.x, pass_plays = count.y) %>%
  mutate(percentage = int/pass_plays*100)

#Which teams have done it more than once?
Purdue has done it thrice since 2014, and Ball State, BYU, Indiana, Tulsa and UAB have all done it twice.

int_play %>% 
  group_by(pos_team) %>%
  summarise(count = n()) %>%
  arrange(desc(count))

## # A tibble: 45 × 2
##    pos_team        count
##    <chr>           <int>
##  1 Purdue              3
##  2 Ball State          2
##  3 BYU                 2
##  4 Indiana             2
##  5 Tulsa               2
##  6 UAB                 2
##  7 Alabama             1
##  8 Bethune-Cookman     1
##  9 Boston College      1
## 10 Bowling Green       1
## # … with 35 more rows
…
